5300DTCWriteup
…
\(Note:\) Looking at break out by
race, there are some counts that could add noise to the data and create
many dummy variables. Thus, the sample was adjusted to the top 10
RACE demographics in terms of employment population.

\(Note:\) Filtering data for just
our top ten most populated RACE categories.

emp_data %>% 
  group_by(RACE) %>% 
  summarise(rec_count = n()) %>% 
  arrange(., desc(rec_count))

## # A tibble: 26 x 2
##    RACE  rec_count
##    <chr>     <int>
##  1 100      799025
##  2 200       96484
##  3 651       59454
##  4 300       11058
##  5 802        5142
##  6 652        4387
##  7 801        3901
##  8 803        2994
##  9 805         696
## 10 804         678
## # ... with 16 more rows
…
