Q3_EDA and Modeling
…
\(Note:\) Looking at break out by race we have some very low count races that could add noise to our data and create many dummy variables.

As a retail business (retail market type undefined for this project) I would not be concerned so much with niche population demographics but rather the larger demographics that represent a larger group of individuals. Because retail focuses on a larger audience im going to reduce our sample to to look adjust the top 10 RACE demographics in terms of emploment population.

\(Note:\) Filtering data for just our top ten most populated RACE categories.

df %>% 
  group_by(RACE) %>% 
  summarise(rec_count = n()) %>% 
  arrange(., desc(rec_count))

## # A tibble: 26 x 2
##    RACE  rec_count
##    <chr>     <int>
##  1 100      838648
##  2 200      101349
##  3 651       62407
##  4 300       11637
##  5 802        5409
##  6 652        4612
##  7 801        4072
##  8 803        3155
##  9 805         745
## 10 804         722
## # ... with 16 more rows
…
